<?xml version="1.0" encoding="utf-8"?>
<!-- Generator: Adobe Illustrator 21.0.0, SVG Export Plug-In . SVG Version: 6.00 Build 0)  -->
<svg version="1.1" id="Layer_1" xmlns="http://www.w3.org/2000/svg" xmlns:xlink="http://www.w3.org/1999/xlink" x="0px" y="0px"
	 viewBox="0 0 44 44" style="enable-background:new 0 0 44 44;" xml:space="preserve">
<title>icons/arrow/Down</title>
<desc>Created with Sketch.</desc>
<g id="Symbols">
	<g id="icons_x2F_arrow_x2F_Down">
		<g id="Shape">
			<polygon id="path-1_1_" points="11.5,9.5 24.6,22.5 11.5,35.5 15.5,39.5 32.5,22.5 15.5,5.5 			"/>
		</g>
	</g>
</g>
</svg>
