<?xml version="1.0" encoding="utf-8"?>
<!-- Generator: Adobe Illustrator 21.0.0, SVG Export Plug-In . SVG Version: 6.00 Build 0)  -->
<svg version="1.1" id="Layer_1" xmlns="http://www.w3.org/2000/svg" xmlns:xlink="http://www.w3.org/1999/xlink" x="0px" y="0px"
	 viewBox="0 0 44 44" style="enable-background:new 0 0 44 44;" xml:space="preserve">
<path id="path-1_1_" d="M22.2,40c2,0,3.6-1.6,3.6-3.6h-7.2C18.6,38.4,20.3,40,22.2,40z M33.9,29.2v-9.9c0-5.5-3.9-10.2-9-11.3V6.7
	c0-1.5-1.2-2.7-2.7-2.7c-1.5,0-2.7,1.2-2.7,2.7V8c-5.1,1.2-9,5.9-9,11.3v9.9L7,32.8v1.8h30.5v-1.8L33.9,29.2z"/>
</svg>
