<?xml version="1.0" encoding="utf-8"?>
<!-- Generator: Adobe Illustrator 21.0.0, SVG Export Plug-In . SVG Version: 6.00 Build 0)  -->
<svg version="1.1" id="Layer_1" xmlns="http://www.w3.org/2000/svg" xmlns:xlink="http://www.w3.org/1999/xlink" x="0px" y="0px"
	 viewBox="0 0 44 44" style="enable-background:new 0 0 44 44;" xml:space="preserve">
<path id="path-1_1_" d="M36.8,16.6h-0.9v-4.4c0,0,0-0.1,0-0.1c0-0.2-0.1-0.3-0.2-0.5l-7.4-8.4c0,0,0,0,0,0c0,0-0.1-0.1-0.2-0.1
	c0,0,0,0,0,0c0,0-0.1,0-0.1-0.1c0,0,0,0,0,0c-0.1,0-0.1,0-0.2,0H9.6C8.7,3,8.1,3.7,8.1,4.5v12.1H7.2c-1.2,0-2.2,1-2.2,2.1v11.1
	c0,1.2,1,2.1,2.2,2.1h0.9v7.6c0,0.8,0.7,1.5,1.5,1.5h24.8c0.8,0,1.5-0.7,1.5-1.5v-7.6h0.9c1.2,0,2.2-1,2.2-2.1V18.7
	C39,17.5,38,16.6,36.8,16.6z M9.6,4.5H27v7.6c0,0.4,0.3,0.7,0.8,0.7h6.7v3.7H9.6V4.5z M28.5,26.3c0.5,0,1.2-0.1,1.5-0.3l0.3,1.4
	c-0.3,0.2-1.1,0.3-2.1,0.3c-2.8,0-4.2-1.7-4.2-4c0-2.7,2-4.2,4.4-4.2c0.9,0,1.7,0.2,2,0.4l-0.4,1.4c-0.4-0.2-0.9-0.3-1.5-0.3
	c-1.4,0-2.6,0.9-2.6,2.6C26,25.3,26.9,26.3,28.5,26.3z M23.2,23.6c0,2.6-1.6,4.2-4,4.2c-2.4,0-3.8-1.8-3.8-4.1
	c0-2.4,1.5-4.2,3.9-4.2C21.9,19.6,23.2,21.4,23.2,23.6z M7.5,27.6v-7.8c0.7-0.1,1.5-0.2,2.5-0.2c1.5,0,2.5,0.3,3.3,0.9
	c0.8,0.6,1.4,1.6,1.4,3c0,1.5-0.6,2.6-1.3,3.2c-0.8,0.7-2.1,1-3.7,1C8.7,27.7,8,27.7,7.5,27.6z M34.4,39.1H9.6v-7.2h24.8L34.4,39.1
	L34.4,39.1z M35.8,27.6l-0.7-1.4c-0.3-0.6-0.5-1-0.7-1.4h0c-0.2,0.5-0.4,0.9-0.6,1.4L33,27.6H31l2.3-4L31,19.7h2.1l0.7,1.5
	c0.2,0.5,0.4,0.9,0.6,1.3h0c0.2-0.5,0.3-0.9,0.5-1.3l0.7-1.5h2.1l-2.3,3.9l2.4,4.1H35.8L35.8,27.6z M12.7,23.5c0-1.7-1-2.5-2.5-2.5
	c-0.4,0-0.7,0-0.8,0.1v5.2c0.2,0,0.4,0,0.6,0C11.7,26.3,12.7,25.4,12.7,23.5z M17.4,23.7c0,1.6,0.7,2.7,2,2.7c1.2,0,1.9-1.2,1.9-2.7
	c0-1.4-0.7-2.7-1.9-2.7C18.1,21,17.4,22.1,17.4,23.7z"/>
</svg>
