<?xml version="1.0" encoding="utf-8"?>
<!-- Generator: Adobe Illustrator 21.0.0, SVG Export Plug-In . SVG Version: 6.00 Build 0)  -->
<svg version="1.1" id="Layer_1" xmlns="http://www.w3.org/2000/svg" xmlns:xlink="http://www.w3.org/1999/xlink" x="0px" y="0px"
	 viewBox="0 0 44 44" style="enable-background:new 0 0 44 44;" xml:space="preserve">
<path id="path-1_1_" d="M36.6,8H7.4C5.5,8,4,9.5,4,11.4v21.2C4,34.5,5.5,36,7.4,36h29.1c1.9,0,3.4-1.5,3.4-3.4V11.4
	C40,9.5,38.5,8,36.6,8z M36.1,15.2L22,24.5L7.9,15.2v-3.4L22,21.2l14.1-9.3V15.2z"/>
</svg>
