<?xml version="1.0" encoding="utf-8"?>
<!-- Generator: Adobe Illustrator 22.0.1, SVG Export Plug-In . SVG Version: 6.00 Build 0)  -->
<svg version="1.1" id="Layer_1" xmlns="http://www.w3.org/2000/svg" xmlns:xlink="http://www.w3.org/1999/xlink" x="0px" y="0px"
	 viewBox="0 0 44 44" style="enable-background:new 0 0 44 44;" xml:space="preserve">
<title>icons/full-screen 2</title>
<desc>Created with Sketch.</desc>
<g id="Combined-Shape">
	<path id="path-1_1_" d="M11.7,34.6l6.7-6.7l-2.4-2.4l-6.7,6.7l0.7-1.7v-4.5l-3.1,0V37h10.9l0-3.1h-4.6L11.7,34.6z M26.1,7l0,3.1
		h4.5l1.7-0.7l-6.7,6.7l2.4,2.4l6.7-6.7l-0.7,1.6v4.6l3.1,0V7H26.1z M22,25.3c1.8,0,3.3-1.5,3.3-3.3c0-1.8-1.5-3.3-3.3-3.3
		c-1.8,0-3.3,1.5-3.3,3.3C18.6,23.8,20.1,25.3,22,25.3z"/>
</g>
</svg>
