<?xml version="1.0" encoding="utf-8"?>
<!-- Generator: Adobe Illustrator 22.0.0, SVG Export Plug-In . SVG Version: 6.00 Build 0)  -->
<svg version="1.1" id="Layer_1" xmlns="http://www.w3.org/2000/svg" xmlns:xlink="http://www.w3.org/1999/xlink" x="0px" y="0px"
	 viewBox="0 0 44 44" style="enable-background:new 0 0 44 44;" xml:space="preserve">
<style type="text/css">
	.st0{filter:url(#Adobe_OpacityMaskFilter);}
	.st1{fill:#FFFFFF;}
	.st2{mask:url(#mask-2_1_);}
	.st3{fill:#B1B2BD;}
</style>
<g id="icons_x2F_edit">
	<g id="Combined-Shape">
		<path id="path-1_1_" d="M38.9,36.8H5.5c-0.7,0-1.3,0.6-1.3,1.2c0,0.7,0.6,1.2,1.3,1.2h33.5c0.7,0,1.3-0.6,1.3-1.2
			C40.2,37.4,39.6,36.8,38.9,36.8z M4.2,25.8l0,5.9c0,0.3,0.1,0.7,0.4,0.9C4.8,32.9,5.1,33,5.4,33l5.9,0c0.3,0,0.6-0.1,0.9-0.4
			l20.5-20.3c0.5-0.5,0.5-1.3,0-1.8l-5.9-5.9c-0.5-0.5-1.3-0.5-1.8,0L21,8.7L4.6,24.9C4.4,25.2,4.2,25.5,4.2,25.8z M26,7.3l4.1,4.1
			l-2.3,2.3l-4.1-4.1L26,7.3z M6.7,26.3l15.1-15l4.1,4.1L10.9,30.4l-4.2,0L6.7,26.3L6.7,26.3z"/>
	</g>
	<defs>
		<filter id="Adobe_OpacityMaskFilter" filterUnits="userSpaceOnUse" x="0" y="0" width="44" height="44">
			<feColorMatrix  type="matrix" values="1 0 0 0 0  0 1 0 0 0  0 0 1 0 0  0 0 0 1 0"/>
		</filter>
	</defs>
	<mask maskUnits="userSpaceOnUse" x="0" y="0" width="44" height="44" id="mask-2_1_">
		<g class="st0">
			<path id="path-1_2_" class="st1" d="M38.9,36.8H5.5c-0.7,0-1.3,0.6-1.3,1.2c0,0.7,0.6,1.2,1.3,1.2h33.5c0.7,0,1.3-0.6,1.3-1.2
				C40.2,37.4,39.6,36.8,38.9,36.8z M4.2,25.8l0,5.9c0,0.3,0.1,0.7,0.4,0.9C4.8,32.9,5.1,33,5.4,33l5.9,0c0.3,0,0.6-0.1,0.9-0.4
				l20.5-20.3c0.5-0.5,0.5-1.3,0-1.8l-5.9-5.9c-0.5-0.5-1.3-0.5-1.8,0L21,8.7L4.6,24.9C4.4,25.2,4.2,25.5,4.2,25.8z M26,7.3l4.1,4.1
				l-2.3,2.3l-4.1-4.1L26,7.3z M6.7,26.3l15.1-15l4.1,4.1L10.9,30.4l-4.2,0L6.7,26.3L6.7,26.3z"/>
		</g>
	</mask>
	<g id="colors_x2F_light-1" class="st2">
		<rect id="Rectangle-Copy-3" class="st3" width="44" height="44"/>
	</g>
</g>
</svg>
