<?xml version="1.0" encoding="utf-8"?>
<!-- Generator: Adobe Illustrator 21.0.0, SVG Export Plug-In . SVG Version: 6.00 Build 0)  -->
<svg version="1.1" id="Layer_1" xmlns="http://www.w3.org/2000/svg" xmlns:xlink="http://www.w3.org/1999/xlink" x="0px" y="0px"
	 viewBox="0 0 44 44" style="enable-background:new 0 0 44 44;" xml:space="preserve">
<style type="text/css">
	.st0{display:none;}
	.st1{display:inline;filter:url(#Adobe_OpacityMaskFilter);}
	.st2{fill:#FFFFFF;}
	.st3{display:inline;mask:url(#mask-2);}
	.st4{display:none;fill:#B1B2BD;}
</style>
<g id="Symbols">
	<g id="icons_x2F_mail_x2F_Email-o" class="st0">
		<defs>
			<filter id="Adobe_OpacityMaskFilter" filterUnits="userSpaceOnUse" x="0" y="0" width="44" height="44">
				<feColorMatrix  type="matrix" values="1 0 0 0 0  0 1 0 0 0  0 0 1 0 0  0 0 0 1 0"/>
			</filter>
		</defs>
		<mask maskUnits="userSpaceOnUse" x="0" y="0" width="44" height="44" id="mask-2" style="display:inline;">
			<g style="filter:url(#Adobe_OpacityMaskFilter);">
				<path id="path-1" class="st2" d="M35.2,8H8.8C6.1,8,4,10.1,4,12.7v19.6C4,34.9,6.1,37,8.8,37h26.5c2.6,0,4.8-2.1,4.8-4.7V12.7
					C40,10.1,37.9,8,35.2,8z M37.1,32.3c0,1-0.8,1.8-1.9,1.8H8.8c-1,0-1.9-0.8-1.9-1.8V12.7c0-1,0.8-1.8,1.9-1.8h26.5
					c1,0,1.9,0.8,1.9,1.8V32.3z M39.7,11.9c-0.5-0.6-1.4-0.8-2-0.4L22,22.4L6.3,11.5c-0.7-0.5-1.6-0.3-2,0.4s-0.3,1.5,0.4,2
					l16.5,11.4c0.3,0.2,0.5,0.3,0.8,0.3c0.3,0,0.6-0.1,0.8-0.3l16.5-11.4C40,13.4,40.2,12.5,39.7,11.9z"/>
			</g>
		</mask>
		<g id="colors_x2F_light-1" class="st3">
			<rect id="Rectangle-Copy-3" class="st4" width="44" height="44"/>
		</g>
	</g>
</g>
<path id="path-1_1_" d="M35.2,8H8.8C6.1,8,4,10.1,4,12.7v19.6C4,34.9,6.1,37,8.8,37h26.5c2.6,0,4.8-2.1,4.8-4.7V12.7
	C40,10.1,37.9,8,35.2,8z M37.1,32.3c0,1-0.8,1.8-1.9,1.8H8.8c-1,0-1.9-0.8-1.9-1.8V12.7c0-1,0.8-1.8,1.9-1.8h26.5
	c1,0,1.9,0.8,1.9,1.8V32.3z M39.7,11.9c-0.5-0.6-1.4-0.8-2-0.4L22,22.4L6.3,11.5c-0.7-0.5-1.6-0.3-2,0.4s-0.3,1.5,0.4,2l16.5,11.4
	c0.3,0.2,0.5,0.3,0.8,0.3c0.3,0,0.6-0.1,0.8-0.3l16.5-11.4C40,13.4,40.2,12.5,39.7,11.9z"/>
</svg>
