<?xml version="1.0" encoding="utf-8"?>
<!-- Generator: Adobe Illustrator 21.0.0, SVG Export Plug-In . SVG Version: 6.00 Build 0)  -->
<svg version="1.1" id="Layer_1" xmlns="http://www.w3.org/2000/svg" xmlns:xlink="http://www.w3.org/1999/xlink" x="0px" y="0px"
	 viewBox="0 0 24 24" style="enable-background:new 0 0 24 24;" xml:space="preserve">
<style type="text/css">
	.st0{fill:#2C2F33;}
	.st1{fill:#010002;}
	.st2{fill:#50ABF1;}
	.st3{fill:#FFFFFF;}
	.st4{fill:#3A559F;}
	.st5{fill:#ED4989;}
	.st6{fill:#0084B1;}
	.st7{fill:#0071B9;}
	.st8{fill:#DD4B39;}
</style>
<path d="M12.9,2.3c-5.3,0-9.7,4.3-9.7,9.7s4.3,9.7,9.7,9.7s9.7-4.3,9.7-9.7S18.2,2.3,12.9,2.3z M13.1,4.7c0.4-0.2,0.9-0.3,1.2,0.1
	c0.1,0.1,0.1,0.2,0.1,0.3s-0.1,0.2-0.2,0.3c-0.1,0-0.1,0.3-0.1,0.5c-0.1,0.4-0.2,1-0.8,1.2c-0.1,0-0.2,0-0.3,0
	c-0.3,0-0.5-0.1-0.6-0.2c-0.4-0.3-0.4-0.8-0.4-1C12.1,5.4,12.6,4.8,13.1,4.7z M13.5,20c-0.2,0-0.4,0-0.6,0c-4.4,0-8.1-3.6-8.1-8.1
	c0-2.2,0.9-4.2,2.3-5.7c0.1,0.4,0.1,1.1,0.1,2v0.2c0,1.8,0,2.3,0.9,3.3c0.8,0.9,3.2,2.9,4.2,3.3c0.1,0,0.1,0.1,0.1,0.1
	c0,0.1-0.1,0.2-0.1,0.3c-0.1,0.2-0.3,0.5-0.3,0.8c0,0.5,0.5,1,1,1.6c0.2,0.3,0.6,0.7,0.7,0.8C13.7,19.1,13.6,19.6,13.5,20z
	 M17.7,18.4c0.5-0.7,0.8-1.3,0.8-1.6c0-0.8-0.4-1.2-1.2-1.2h0c-0.2,0-1.1-0.7-1.6-1c-0.9-0.7-1.3-1-1.6-1c-0.4,0-0.6,0.2-0.8,0.3
	c-0.3-0.2-0.8-0.7-0.8-1.1c0-0.9-0.8-1-1.1-1c0.1-0.1,0.1-0.2,0.2-0.2c0.2-0.1,0.5,0.2,0.6,0.3c0.1,0.1,0.3,0.2,0.4,0.1
	c0.2-0.1,0.2-0.2,0.2-0.4c0-1.3,1.5-2,2.6-2.5c0.8-0.4,1.4-0.6,1.4-1.1c0-0.6-0.5-1-1-1.4c-0.2-0.2-0.6-0.5-0.6-0.6
	c0,0,0.1,0,0.1-0.1c0.2-0.1,0.7-0.3,0.7-1.2c0,0,0-0.1,0-0.1c2.9,1.2,4.9,4.1,4.9,7.4C20.9,14.6,19.7,16.9,17.7,18.4z"/>
</svg>
