<?xml version="1.0" encoding="utf-8"?>
<!-- Generator: Adobe Illustrator 21.0.0, SVG Export Plug-In . SVG Version: 6.00 Build 0)  -->
<svg version="1.1" id="Layer_1" xmlns="http://www.w3.org/2000/svg" xmlns:xlink="http://www.w3.org/1999/xlink" x="0px" y="0px"
	 viewBox="0 0 44 44" style="enable-background:new 0 0 44 44;" xml:space="preserve">
<path id="a_1_" d="M29.6,20.6c3.2,0,5.7-2.6,5.7-5.8c0-3.2-2.5-5.8-5.7-5.8s-5.7,2.6-5.7,5.8C23.9,18,26.5,20.6,29.6,20.6z
	 M14.4,20.6c3.2,0,5.7-2.6,5.7-5.8c0-3.2-2.5-5.8-5.7-5.8c-3.2,0-5.7,2.6-5.7,5.8C8.6,18,11.2,20.6,14.4,20.6z M14.4,24.4
	C9.9,24.4,1,26.7,1,31.2V36h26.7v-4.8C27.7,26.7,18.8,24.4,14.4,24.4z M29.6,24.4c-0.6,0-1.2,0-1.9,0.1c2.2,1.6,3.8,3.8,3.8,6.7V36
	H43v-4.8C43,26.7,34.1,24.4,29.6,24.4z"/>
</svg>
