<?xml version="1.0" encoding="utf-8"?>
<!-- Generator: Adobe Illustrator 21.0.0, SVG Export Plug-In . SVG Version: 6.00 Build 0)  -->
<svg version="1.1" id="Layer_1" xmlns="http://www.w3.org/2000/svg" xmlns:xlink="http://www.w3.org/1999/xlink" x="0px" y="0px"
	 viewBox="0 0 44 44" style="enable-background:new 0 0 44 44;" xml:space="preserve">
<style type="text/css">
	.st0{fill:#FFCC4D;}
	.st1{fill:#664500;}
</style>
<path id="Shape" class="st0" d="M39.9,22c0,9.9-8,18-18,18C12,40,4,31.9,4,22S12,4,22,4C31.9,4,39.9,12.1,39.9,22"/>
<path id="SVGCleanerId_0" class="st1" d="M19,19.5c0,1.9-1.1,3.5-2.5,3.5S14,21.4,14,19.5s1.1-3.5,2.5-3.5S19,17.6,19,19.5"/>
<path class="st1" d="M30.9,19.4c0,1.9-1.1,3.5-2.5,3.5s-2.5-1.5-2.5-3.5c0-1.9,1.1-3.5,2.5-3.5S30.9,17.5,30.9,19.4"/>
<path id="Shape_1_" class="st1" d="M24.8,32c1.3-0.4,2.6-1.2,2.6-2.5c0-2.6-4.9-3-5.5-3c-0.3,0-0.5,0.2-0.5,0.5s0.2,0.5,0.5,0.5
	c0,0,3.5,0.3,3.5,2s-3.5,2-3.5,2l0,0c-0.1,0-0.1,0-0.1,0l0,0l-0.1,0.1l0,0c0,0,0,0.1-0.1,0.1v0.1c0,0,0,0,0,0.1l0,0l0,0
	c0,0,0,0,0,0.1v0.1v0.1c0,0,0,0,0.1,0.1c0,0,0,0,0.1,0.1c0,0,0,0,0.1,0H22c0,0,0,0,0.1,0c0,0,3.5,0.3,3.5,2s-3.5,2-3.5,2
	c-0.3,0-0.5,0.3-0.5,0.5c0,0.3,0.2,0.5,0.5,0.5l0,0c0.6,0,5.5-0.4,5.5-3C27.5,33.1,26.2,32.4,24.8,32"/>
</svg>
