<?xml version="1.0" encoding="utf-8"?>
<!-- Generator: Adobe Illustrator 22.0.0, SVG Export Plug-In . SVG Version: 6.00 Build 0)  -->
<svg version="1.1" id="Layer_1" xmlns="http://www.w3.org/2000/svg" xmlns:xlink="http://www.w3.org/1999/xlink" x="0px" y="0px"
	 viewBox="0 0 44 44" style="enable-background:new 0 0 44 44;" xml:space="preserve">
<style type="text/css">
	.st0{fill:#FFC10E;}
	.st1{fill:#D22327;}
	.st2{fill:#9B1C1F;}
	.st3{fill:#333333;}
	.st4{fill:#E22928;}
</style>
<g id="icons_x2F_emo_x2F_Kissing">
	<g id="emo-kissing" transform="translate(4.000000, 4.000000)">
		<circle id="Oval" class="st0" cx="18" cy="18" r="18"/>
		<path id="Shape" class="st1" d="M10,21.4h15.9c0,0-2.3,9-8,9S10,21.4,10,21.4z"/>
		<path id="Shape_1_" class="st2" d="M19.7,22.7c0,0.7-1,1.2-1.7,1.2c-0.7,0-1.7-0.6-1.7-1.2c0-0.7,1-1.2,1.7-1.2
			C18.7,21.4,19.7,22,19.7,22.7z"/>
		<g id="Group" transform="translate(7.974684, 9.873418)">
			<path id="Shape_2_" class="st3" d="M20.4,3.3c-1.3-2.7-4.4-3.9-7.1-2.9c-0.8,0.3-0.5,1.7,0.4,1.4c2.2-0.9,4.5,0,5.5,2.2
				C19.6,4.8,20.8,4.1,20.4,3.3L20.4,3.3z"/>
			<path id="Shape_3_" class="st3" d="M1.3,4c1-2.2,3.3-3.1,5.5-2.2c0.9,0.3,1.2-1,0.4-1.4C4.4-0.7,1.4,0.6,0.1,3.3
				C-0.3,4.1,0.9,4.8,1.3,4L1.3,4z"/>
		</g>
		<path id="Shape_4_" class="st4" d="M25.4,20.6c-2-1.1-4.1-5.6-7.4-2.3h0c-3.3-3.3-5.4,1.3-7.4,2.3C10,20.9,10,21.4,10,21.4
			s2.3,1.9,4.3,1.9s2.3-1.1,3.7-1.1h0c1.4,0,1.7,1.1,3.7,1.1s4.3-1.9,4.3-1.9S25.9,20.9,25.4,20.6z"/>
	</g>
</g>
</svg>
