<?xml version="1.0" encoding="utf-8"?>
<!-- Generator: Adobe Illustrator 21.0.0, SVG Export Plug-In . SVG Version: 6.00 Build 0)  -->
<svg version="1.1" id="Layer_1" xmlns="http://www.w3.org/2000/svg" xmlns:xlink="http://www.w3.org/1999/xlink" x="0px" y="0px"
	 viewBox="0 0 24 24" style="enable-background:new 0 0 24 24;" xml:space="preserve">
<style type="text/css">
	.st0{fill:#2C2F33;}
	.st1{fill:#010002;}
	.st2{fill:#50ABF1;}
	.st3{fill:#FFFFFF;}
	.st4{fill:#3A559F;}
	.st5{fill:#ED4989;}
	.st6{fill:#0084B1;}
	.st7{fill:#0071B9;}
	.st8{fill:#DD4B39;}
</style>
<g>
	<path d="M3.3,11.3h3.1c0.7,0,1.3-0.6,1.3-1.3V6.9c0-0.7-0.6-1.3-1.3-1.3H3.3C2.6,5.6,2,6.2,2,6.9V10C2,10.7,2.6,11.3,3.3,11.3
		L3.3,11.3z M3,6.9c0-0.2,0.1-0.3,0.3-0.3h3.1c0.2,0,0.3,0.1,0.3,0.3V10c0,0.2-0.1,0.3-0.3,0.3H3.3C3.1,10.3,3,10.2,3,10V6.9z
		 M3,6.9"/>
	<path d="M2,17.1c0,0.7,0.6,1.3,1.3,1.3h3.1c0.7,0,1.3-0.6,1.3-1.3V14c0-0.7-0.6-1.3-1.3-1.3H3.3C2.6,12.7,2,13.3,2,14V17.1z M3,14
		c0-0.2,0.1-0.3,0.3-0.3h3.1c0.2,0,0.3,0.1,0.3,0.3v3.1c0,0.2-0.1,0.3-0.3,0.3H3.3c-0.2,0-0.3-0.1-0.3-0.3V14z M3,14"/>
	<path d="M21.5,6.9H10.3c-0.3,0-0.5,0.2-0.5,0.5c0,0.3,0.2,0.5,0.5,0.5h11.2c0.3,0,0.5-0.2,0.5-0.5C22,7.1,21.8,6.9,21.5,6.9
		L21.5,6.9z M21.5,6.9"/>
	<path d="M21.5,9H10.3C10,9,9.8,9.3,9.8,9.5c0,0.3,0.2,0.5,0.5,0.5h11.2c0.3,0,0.5-0.2,0.5-0.5C22,9.3,21.8,9,21.5,9L21.5,9z
		 M21.5,9"/>
	<path d="M21.5,14H10.3c-0.3,0-0.5,0.2-0.5,0.5c0,0.3,0.2,0.5,0.5,0.5h11.2c0.3,0,0.5-0.2,0.5-0.5C22,14.2,21.8,14,21.5,14L21.5,14z
		 M21.5,14"/>
	<path d="M21.5,16.1H10.3c-0.3,0-0.5,0.2-0.5,0.5c0,0.3,0.2,0.5,0.5,0.5h11.2c0.3,0,0.5-0.2,0.5-0.5C22,16.4,21.8,16.1,21.5,16.1
		L21.5,16.1z M21.5,16.1"/>
</g>
</svg>
