<?xml version="1.0" encoding="utf-8"?>
<!-- Generator: Adobe Illustrator 22.0.0, SVG Export Plug-In . SVG Version: 6.00 Build 0)  -->
<svg version="1.1" id="Layer_1" xmlns="http://www.w3.org/2000/svg" xmlns:xlink="http://www.w3.org/1999/xlink" x="0px" y="0px"
	 viewBox="0 0 44 44" style="enable-background:new 0 0 44 44;" xml:space="preserve">
<style type="text/css">
	.st0{fill:#FFCC4D;}
	.st1{fill:#664500;}
	.st2{fill:#E75A70;}
</style>
<g id="icons_x2F_emo_x2F_Love">
	<g id="emo-inlove-2" transform="translate(4.000000, 3.000000)">
		
			<g id="Group" transform="translate(18.000000, 18.964912) scale(-1, 1) rotate(-180.000000) translate(-18.000000, -18.964912) translate(0.000000, 0.964912)">
			<g id="Shape">
				<g>
					<path class="st0" d="M35.9,18c0-9.9-8-18-18-18S0,8.1,0,18s8,18,18,18S35.9,27.9,35.9,18"/>
					<path class="st1" d="M18,14.2c-3,0-4.9,0.3-7.4,0.8C10.1,15.1,9,15,9,13.3C9,10.1,12.7,6,18,6s9,4.1,9,7.4
						c0,1.6-1.1,1.7-1.6,1.6C22.9,14.5,20.9,14.2,18,14.2"/>
					<g transform="translate(0.350877, 19.912281)">
						<path class="st2" d="M16.3,12.8c-0.9,2.4-3.5,3.7-5.9,2.8c-1.5-0.5-2.5-1.7-2.9-3.1c-1.2,0.8-2.7,1.1-4.2,0.6
							c-2.4-0.9-3.7-3.5-2.8-5.9c0.1-0.3,0.3-0.7,0.5-1c1.9-3.6,7.6-6.1,11-6.1c2.6,2.2,5.4,7.6,4.7,11.7
							C16.5,12.1,16.4,12.4,16.3,12.8"/>
						<path class="st2" d="M19,12.8c0.9,2.4,3.5,3.7,5.9,2.8c1.5-0.5,2.5-1.7,2.9-3.1c1.2,0.8,2.7,1.1,4.2,0.6
							c2.4-0.9,3.7-3.5,2.8-5.9c-0.1-0.3-0.3-0.7-0.5-1c-1.9-3.6-7.6-6.1-11-6.1c-2.6,2.2-5.4,7.6-4.7,11.7
							C18.8,12.1,18.8,12.4,19,12.8"/>
					</g>
				</g>
			</g>
		</g>
	</g>
</g>
</svg>
