<?xml version="1.0" encoding="utf-8"?>
<!-- Generator: Adobe Illustrator 21.0.0, SVG Export Plug-In . SVG Version: 6.00 Build 0)  -->
<svg version="1.1" id="Layer_1" xmlns="http://www.w3.org/2000/svg" xmlns:xlink="http://www.w3.org/1999/xlink" x="0px" y="0px"
	 viewBox="0 0 44 44" style="enable-background:new 0 0 44 44;" xml:space="preserve">
<path id="path-1_1_" d="M8.5,18C6,18,4,20,4,22.5S6,27,8.5,27s4.5-2,4.5-4.5S11,18,8.5,18z M35.5,18C33,18,31,20,31,22.5
	s2,4.5,4.5,4.5s4.5-2,4.5-4.5S38,18,35.5,18z M22,18c-2.5,0-4.5,2-4.5,4.5s2,4.5,4.5,4.5s4.5-2,4.5-4.5S24.5,18,22,18z"/>
</svg>
