<?xml version="1.0" encoding="utf-8"?>
<!-- Generator: Adobe Illustrator 22.0.1, SVG Export Plug-In . SVG Version: 6.00 Build 0)  -->
<svg version="1.1" id="Layer_1" xmlns="http://www.w3.org/2000/svg" xmlns:xlink="http://www.w3.org/1999/xlink" x="0px" y="0px"
	 viewBox="0 0 44 44" style="enable-background:new 0 0 44 44;" xml:space="preserve">
<g id="Combined-Shape">
	<path id="path-1_1_" d="M22.2,22.1c-0.2-0.6-0.4-1.5-0.6-2.1h0c-0.2,0.6-0.3,1.5-0.5,2.1l-0.6,2.3h2.4L22.2,22.1z M36.9,16.3H36V12
		c0,0,0-0.1,0-0.1c0-0.2-0.1-0.3-0.2-0.5l-7.2-8.2c0,0,0,0,0,0c0,0-0.1-0.1-0.1-0.1c0,0,0,0,0,0c0,0-0.1,0-0.1-0.1c0,0,0,0,0,0
		c-0.1,0-0.1,0-0.2,0H10.4C9.6,3,9,3.7,9,4.5v11.9H8.1c-1.2,0-2.1,0.9-2.1,2.1v10.9c0,1.2,0.9,2.1,2.1,2.1H9v7.4
		c0,0.8,0.7,1.5,1.5,1.5h24.1c0.8,0,1.5-0.7,1.5-1.5v-7.4h0.9c1.2,0,2.1-0.9,2.1-2.1V18.4C39,17.3,38.1,16.3,36.9,16.3z M10.4,4.5
		h16.9v7.5c0,0.4,0.3,0.7,0.7,0.7h6.5v3.7H10.4V4.5z M26.8,29.1h-2.7l-0.8-2.8h-3.1l-0.8,2.8h-2.6l3.3-10.9h3.2L26.8,29.1z
		 M10.3,24.8v4.3H7.8V18.3c0.8-0.1,2-0.2,3.3-0.2c1.6,0,2.8,0.2,3.5,0.9c0.6,0.5,1,1.3,1,2.3c0,1.4-1,2.3-1.9,2.7v0
		c0.8,0.3,1.2,1,1.5,2c0.3,1.2,0.7,2.7,0.9,3.1h-2.5c-0.2-0.3-0.4-1.2-0.8-2.5c-0.3-1.4-0.8-1.7-1.8-1.7L10.3,24.8L10.3,24.8z
		 M34.6,38.4H10.4v-7h24.1V38.4z M33.9,29.1c-0.2-0.3-0.4-1.2-0.8-2.5c-0.3-1.4-0.8-1.7-1.8-1.7h-0.7v4.3h-2.4V18.3
		c0.8-0.1,2-0.2,3.3-0.2c1.6,0,2.8,0.2,3.5,0.9c0.6,0.5,1,1.3,1,2.3c0,1.4-1,2.3-1.9,2.7v0c0.8,0.3,1.2,1,1.5,2
		c0.3,1.2,0.7,2.7,0.9,3.1L33.9,29.1L33.9,29.1z M13.2,21.4c0-1-0.7-1.5-1.8-1.5c-0.6,0-0.9,0-1.1,0.1v3l1,0
		C12.5,23,13.2,22.4,13.2,21.4z M31.8,19.9c-0.6,0-0.9,0-1.1,0.1v3h1c1.2,0,2-0.6,2-1.6C33.6,20.4,32.9,19.9,31.8,19.9z"/>
</g>
</svg>
