<?xml version="1.0" encoding="utf-8"?>
<!-- Generator: Adobe Illustrator 21.0.0, SVG Export Plug-In . SVG Version: 6.00 Build 0)  -->
<svg version="1.1" id="Layer_1" xmlns="http://www.w3.org/2000/svg" xmlns:xlink="http://www.w3.org/1999/xlink" x="0px" y="0px"
	 viewBox="0 0 24 24" style="enable-background:new 0 0 24 24;" xml:space="preserve">
<style type="text/css">
	.st0{fill:#50ABF1;}
	.st1{fill:#FFFFFF;}
	.st2{fill:#3A559F;}
	.st3{fill:#ED4989;}
	.st4{fill:#0084B1;}
	.st5{fill:#0071B9;}
	.st6{fill:#DD4B39;}
	.st7{fill:none;}
	.st8{fill:#2C2F33;}
	.st9{fill:#010002;}
	.st10{fill:#231F20;}
	.st11{clip-path:url(#SVGID_2_);}
</style>
<g>
	<g>
		<defs>
			<rect id="SVGID_1_" x="4.8" y="4.8" width="14.5" height="14.5"/>
		</defs>
		<clipPath id="SVGID_2_">
			<use xlink:href="#SVGID_1_"  style="overflow:visible;"/>
		</clipPath>
		<path class="st11" d="M19.1,18.2l-3.5-3.5c0.9-1.1,1.4-2.4,1.4-3.9c0-3.4-2.7-6.1-6.1-6.1c-3.4,0-6.1,2.7-6.1,6.1S7.5,17,10.9,17
			c1.5,0,2.8-0.5,3.9-1.4l3.5,3.5c0.2,0.2,0.6,0.2,0.9,0C19.3,18.8,19.3,18.5,19.1,18.2L19.1,18.2z M10.9,15.8
			c-2.7,0-4.9-2.2-4.9-4.9S8.2,6,10.9,6c2.7,0,4.9,2.2,4.9,4.9S13.6,15.8,10.9,15.8L10.9,15.8z M10.9,15.8"/>
	</g>
</g>
</svg>
