<?xml version="1.0" encoding="utf-8"?>
<!-- Generator: Adobe Illustrator 22.0.0, SVG Export Plug-In . SVG Version: 6.00 Build 0)  -->
<svg version="1.1" id="Layer_1" xmlns="http://www.w3.org/2000/svg" xmlns:xlink="http://www.w3.org/1999/xlink" x="0px" y="0px"
	 viewBox="0 0 44 44" style="enable-background:new 0 0 44 44;" xml:space="preserve">
<style type="text/css">
	.st0{fill:#FFC10E;}
	.st1{fill:#333333;}
	.st2{fill:#A2D4DE;}
</style>
<g id="icons_x2F_emo_x2F_Sad">
	<g id="emo-unhappy" transform="translate(4.000000, 4.000000)">
		<circle id="Oval" class="st0" cx="18" cy="18" r="18"/>
		<g id="Group" transform="translate(8.582278, 8.962025)">
			<path id="Shape" class="st1" d="M18.5,17.9c-5-5.1-13.2-5.1-18.2,0.1c-0.6,0.7,0.4,1.7,1,1c4.5-4.6,11.7-4.6,16.2-0.1
				C18.1,19.6,19.1,18.6,18.5,17.9L18.5,17.9z"/>
			<circle id="Oval_1_" class="st1" cx="3.9" cy="2.8" r="2.8"/>
			<circle id="Oval_2_" class="st1" cx="14.6" cy="2.8" r="2.8"/>
		</g>
		<path id="Shape_1_" class="st2" d="M26.1,14.3c0,0-2.1,2.6-2.1,5.2c0,1.2,0.9,2.1,2.1,2.1c1.2,0,2.1-0.9,2.1-2.1
			C28.2,18.3,26.1,14.3,26.1,14.3z"/>
	</g>
</g>
</svg>
