<?xml version="1.0" encoding="utf-8"?>
<!-- Generator: Adobe Illustrator 21.0.0, SVG Export Plug-In . SVG Version: 6.00 Build 0)  -->
<svg version="1.1" id="Layer_1" xmlns="http://www.w3.org/2000/svg" xmlns:xlink="http://www.w3.org/1999/xlink" x="0px" y="0px"
	 viewBox="0 0 24 24" style="enable-background:new 0 0 24 24;" xml:space="preserve">
<style type="text/css">
	.st0{fill:#2C2F33;}
	.st1{fill:#010002;}
	.st2{fill:#50ABF1;}
	.st3{fill:#FFFFFF;}
	.st4{fill:#3A559F;}
	.st5{fill:#ED4989;}
	.st6{fill:#0084B1;}
	.st7{fill:#0071B9;}
	.st8{fill:#DD4B39;}
</style>
<path d="M18.5,9.6h-2L17.1,7c0.5-2-0.8-4-2.7-4.4l-2.8-0.7c-1-0.2-1.9-0.1-2.8,0.5C7.9,2.9,7.3,3.7,7.1,4.7C7,5,7.2,5.4,7.6,5.5
	C7.9,5.6,8.3,5.4,8.4,5c0.1-0.6,0.5-1.1,1-1.4c0.5-0.3,1.1-0.4,1.7-0.3L14,3.9c1.2,0.3,2,1.5,1.7,2.8L15,9.6H5.5
	c-0.4,0-0.7,0.3-0.7,0.7V17c0,2.8,2.3,5.1,5.1,5.1h4.2c2.8,0,5.1-2.3,5.1-5.1v-6.8C19.2,9.9,18.9,9.6,18.5,9.6L18.5,9.6z M18.1,17.1
	c0,2.1-1.7,3.9-3.9,3.9H9.8c-2.1,0-3.9-1.7-3.9-3.9v-6.3h12.1V17.1z M17.8,17"/>
<path d="M11.3,17.2c0,0.4,0.3,0.7,0.7,0.7c0.4,0,0.7-0.3,0.7-0.7v-2c0.1-0.1,0.1-0.3,0.1-0.4c0-0.4-0.3-0.7-0.7-0.7h-0.3
	c-0.4,0-0.7,0.3-0.7,0.7c0,0.2,0,0.3,0.1,0.4V17.2z M11.3,17.2"/>
</svg>
