<?xml version="1.0" encoding="utf-8"?>
<!-- Generator: Adobe Illustrator 21.0.0, SVG Export Plug-In . SVG Version: 6.00 Build 0)  -->
<svg version="1.1" id="Layer_1" xmlns="http://www.w3.org/2000/svg" xmlns:xlink="http://www.w3.org/1999/xlink" x="0px" y="0px"
	 viewBox="0 0 24 24" style="enable-background:new 0 0 24 24;" xml:space="preserve">
<style type="text/css">
	.st0{fill:#50ABF1;}
	.st1{fill:#FFFFFF;}
	.st2{fill:#3A559F;}
	.st3{fill:#ED4989;}
	.st4{fill:#0084B1;}
	.st5{fill:#0071B9;}
	.st6{fill:#DD4B39;}
	.st7{fill:none;}
	.st8{fill:#2C2F33;}
	.st9{fill:#010002;}
</style>
<g>
	<g>
		<path d="M15.8,12.5c0,0,0.1,0,0.2,0.1c0,0,0.1,0,0.1,0c0.3,0.1,0.6,0.1,0.9,0.1c0.1,0,0.2,0,0.3,0c0,0,0.1,0,0.1,0l0.1,0
			c0,0,0.1,0,0.1,0c0,0,0.1,0,0.1,0l0,0c0.1,0,0.1,0,0.2,0l0.1,0c0,0,0.1,0,0.1-0.1c0,0,0,0,0.1,0c0.1,0,0.1-0.1,0.2-0.1
			c0,0,0,0,0.1,0c0.1,0,0.1-0.1,0.2-0.1l0.1,0c0.5-0.3,0.9-0.8,1.1-1.4c0.2-0.4,0.2-0.7,0.2-1.1l0-0.1c0-0.4-0.1-0.7-0.2-1.1
			c-0.4-1.2-1.6-2-2.9-2c-1.4,0-2.6,0.9-3,2.2c-0.1,0.2-0.1,0.5-0.1,0.7l0,0c0,0,0,0.1,0,0.1l0,0C13.9,10.9,14.6,12,15.8,12.5
			L15.8,12.5z M14.6,9.6L14.6,9.6c0-0.2,0-0.4,0.1-0.6c0.3-1,1.2-1.6,2.2-1.6c1,0,1.8,0.6,2.2,1.5c0.1,0.2,0.1,0.5,0.1,0.7v0.1
			c0,0.3-0.1,0.6-0.2,0.9c-0.2,0.4-0.4,0.7-0.8,1l-0.1,0c0,0-0.1,0.1-0.1,0.1l0,0c0,0-0.1,0-0.1,0.1l-0.1,0c0,0-0.1,0-0.1,0l-0.1,0
			c0,0-0.1,0-0.1,0l-0.1,0c0,0-0.1,0-0.1,0l-0.1,0c-0.3,0-0.6,0-0.9-0.1c0,0,0,0-0.1,0l-0.1,0c0,0-0.1,0-0.1,0
			C15.2,11.4,14.7,10.6,14.6,9.6C14.6,9.6,14.6,9.6,14.6,9.6L14.6,9.6z M17,12.8c-1.3,0-2.6,0.6-3.5,1.5c-1.2-1-2.7-1.6-4.4-1.6
			c-3.8,0-6.9,3.1-6.9,6.9c0,0.1,0,0.1,0,0.2l0,0.5H16l0-0.5c0-0.1,0-0.1,0-0.2c0-0.5,0-0.9-0.1-1.4h6l0-0.4c0,0,0-0.1,0-0.1
			C21.9,15,19.7,12.8,17,12.8L17,12.8z M2.9,19.5c0.1-3.3,2.8-6,6.1-6c1.6,0,3.1,0.6,4.2,1.6c0.1,0.1,0.2,0.2,0.2,0.2
			c0,0,0.1,0.1,0.1,0.1c0.2,0.3,0.5,0.5,0.7,0.8c0,0,0.1,0.1,0.1,0.2c0.1,0.1,0.1,0.2,0.2,0.3c0,0,0,0.1,0.1,0.1
			c0.1,0.2,0.2,0.4,0.2,0.6c0,0,0,0.1,0,0.1c0,0.1,0.1,0.2,0.1,0.3c0.2,0.5,0.2,1,0.3,1.6H2.9z M15.6,17.5
			C15.6,17.5,15.6,17.5,15.6,17.5c-0.1-0.2-0.2-0.5-0.3-0.7c0,0,0-0.1-0.1-0.1c-0.1-0.2-0.2-0.4-0.3-0.6c0,0-0.1-0.1-0.1-0.1
			c-0.1-0.2-0.2-0.4-0.4-0.5c0,0,0-0.1-0.1-0.1c-0.2-0.2-0.3-0.4-0.5-0.6c0.8-0.8,1.8-1.3,3-1.3c2.2,0,4,1.7,4.1,3.9L15.6,17.5
			L15.6,17.5z M7.4,12c0,0,0.1,0,0.1,0.1l0.1,0c0,0,0.1,0,0.1,0c0.4,0.1,0.9,0.2,1.3,0.2h0c0.1,0,0.3,0,0.4,0c0,0,0.1,0,0.1,0l0.1,0
			c0.1,0,0.1,0,0.2,0c0,0,0.1,0,0.1,0l0.1,0c0.1,0,0.1,0,0.2-0.1c0,0,0.1,0,0.1,0l0.1,0c0.1,0,0.1,0,0.2-0.1c0,0,0.1,0,0.1-0.1
			c0.1,0,0.2-0.1,0.3-0.1c0,0,0,0,0.1,0c0.1-0.1,0.2-0.1,0.3-0.2l0,0c1.2-0.8,1.9-2.1,1.9-3.6c0-2.4-1.9-4.3-4.3-4.3
			c-2.3,0-4.2,1.8-4.3,4.1l0,0c0,0.1,0,0.1,0,0.2C4.7,9.8,5.8,11.3,7.4,12L7.4,12z M5.5,7.8L5.5,7.8c0.1-1.9,1.7-3.4,3.5-3.4
			c2,0,3.6,1.6,3.6,3.6c0,1.2-0.6,2.3-1.5,2.9L11,11c-0.1,0-0.1,0.1-0.2,0.1l0,0c-0.1,0-0.1,0.1-0.2,0.1l-0.1,0c0,0-0.1,0-0.1,0.1
			l-0.2,0.1c0,0-0.1,0-0.1,0l-0.1,0c0,0-0.1,0-0.1,0c0,0-0.1,0-0.1,0l-0.1,0c0,0-0.1,0-0.1,0c-0.1,0-0.2,0-0.4,0
			c-0.4,0-0.7-0.1-1.1-0.2c0,0-0.1,0-0.1,0l-0.1-0.1c0,0-0.1,0-0.1,0C6.4,10.7,5.5,9.4,5.5,8C5.5,8,5.5,7.9,5.5,7.8L5.5,7.8z
			 M5.5,7.8"/>
	</g>
	<rect class="st7" width="24" height="24"/>
</g>
</svg>
