<?xml version="1.0" encoding="utf-8"?>
<!-- Generator: Adobe Illustrator 21.0.0, SVG Export Plug-In . SVG Version: 6.00 Build 0)  -->
<svg version="1.1" id="Layer_1" xmlns="http://www.w3.org/2000/svg" xmlns:xlink="http://www.w3.org/1999/xlink" x="0px" y="0px"
	 viewBox="0 0 44 44" style="enable-background:new 0 0 44 44;" xml:space="preserve">
<path id="path-1_1_" d="M22,9c2.5,0,4.5,2,4.5,4.5S24.5,18,22,18s-4.5-2-4.5-4.5S19.5,9,22,9L22,9z M22,28.2c6.3,0,13,3.1,13,4.5V35
	H9v-2.3C9,31.3,15.7,28.2,22,28.2L22,28.2z M22,5c-4.7,0-8.5,3.8-8.5,8.5S17.3,22,22,22s8.5-3.8,8.5-8.5S26.7,5,22,5z M22,24.1
	c-5.7,0-17,2.8-17,8.5V39h34v-6.4C39,27,27.7,24.1,22,24.1z"/>
</svg>
